{
  "name": "compactmachines3:wallbreakable",
  "target-block": "compactmachines3:wallbreakable",
  "target-count": 27,
  "input-types": {
    "a": {
      "id": "enderio:block_alloy",
      "meta": 6
    },
    "b": {
      "id": "thermalfoundation:storage",
      "meta": 6
    }
  },
  "shape": [
    [
      [
        "a",
        "a",
        "a"
      ],
      [
        "a",
        "a",
        "a"
      ],
      [
        "a",
        "a",
        "a"
      ]
    ],
    [
      [
        "a",
        "a",
        "a"
      ],
      [
        "a",
        "b",
        "a"
      ],
      [
        "a",
        "a",
        "a"
      ]
    ],
    [
      [
        "a",
        "a",
        "a"
      ],
      [
        "a",
        "a",
        "a"
      ],
      [
        "a",
        "a",
        "a"
      ]
    ]
  ]

}



  
